{
  "files": {
    "main.css": "/static/css/main.33b490c4.chunk.css",
    "main.js": "/static/js/main.1ab87bde.chunk.js",
    "main.js.map": "/static/js/main.1ab87bde.chunk.js.map",
    "runtime-main.js": "/static/js/runtime-main.dd22ff0c.js",
    "runtime-main.js.map": "/static/js/runtime-main.dd22ff0c.js.map",
    "static/css/2.4bb059ad.chunk.css": "/static/css/2.4bb059ad.chunk.css",
    "static/js/2.7f45511f.chunk.js": "/static/js/2.7f45511f.chunk.js",
    "static/js/2.7f45511f.chunk.js.map": "/static/js/2.7f45511f.chunk.js.map",
    "static/js/3.94e63a90.chunk.js": "/static/js/3.94e63a90.chunk.js",
    "static/js/3.94e63a90.chunk.js.map": "/static/js/3.94e63a90.chunk.js.map",
    "index.html": "/index.html",
    "static/css/2.4bb059ad.chunk.css.map": "/static/css/2.4bb059ad.chunk.css.map",
    "static/css/main.33b490c4.chunk.css.map": "/static/css/main.33b490c4.chunk.css.map",
    "static/js/2.7f45511f.chunk.js.LICENSE.txt": "/static/js/2.7f45511f.chunk.js.LICENSE.txt",
    "static/media/ConnexionPop.40c2f9f6.png": "/static/media/ConnexionPop.40c2f9f6.png",
    "static/media/index.css": "/static/media/museosans-700-webfont.05abe2f9.ttf",
    "static/media/dollar.ecfe6079.png": "/static/media/dollar.ecfe6079.png",
    "static/media/ether.7ff97290.png": "/static/media/ether.7ff97290.png",
    "static/media/finalLogo.ff1b9806.png": "/static/media/finalLogo.ff1b9806.png",
    "static/media/firstFinal.e3ed0eef.png": "/static/media/firstFinal.e3ed0eef.png",
    "static/media/firstSelectLand.bc4f21cf.png": "/static/media/firstSelectLand.bc4f21cf.png",
    "static/media/fourthFinal.6935bbdf.png": "/static/media/fourthFinal.6935bbdf.png",
    "static/media/homePage.7a3195df.png": "/static/media/homePage.7a3195df.png",
    "static/media/metamask.4368e45a.svg": "/static/media/metamask.4368e45a.svg",
    "static/media/noImage.86e8f937.png": "/static/media/noImage.86e8f937.png",
    "static/media/secondFinal.b4dccc34.png": "/static/media/secondFinal.b4dccc34.png",
    "static/media/selectERC20.63c186f0.png": "/static/media/selectERC20.63c186f0.png",
    "static/media/stop.278ff89f.png": "/static/media/stop.278ff89f.png",
    "static/media/swapper13.9205bd67.png": "/static/media/swapper13.9205bd67.png",
    "static/media/thirdFinal.4374553c.png": "/static/media/thirdFinal.4374553c.png",
    "static/media/walletconnect.03da5e3f.svg": "/static/media/walletconnect.03da5e3f.svg"
  },
  "entrypoints": [
    "static/js/runtime-main.dd22ff0c.js",
    "static/css/2.4bb059ad.chunk.css",
    "static/js/2.7f45511f.chunk.js",
    "static/css/main.33b490c4.chunk.css",
    "static/js/main.1ab87bde.chunk.js"
  ]
}